<?xml version="1.0" encoding="utf-8"?>
<!-- Generator: Adobe Illustrator 19.0.0, SVG Export Plug-In . SVG Version: 6.00 Build 0)  -->
<!DOCTYPE svg PUBLIC "-//W3C//DTD SVG 1.1//EN" "http://www.w3.org/Graphics/SVG/1.1/DTD/svg11.dtd">
<svg version="1.1" id="Layer_1" xmlns="http://www.w3.org/2000/svg" xmlns:xlink="http://www.w3.org/1999/xlink" x="0px" y="0px"
	 viewBox="-105 197 400 400" style="enable-background:new -105 197 400 400;" xml:space="preserve">
<style type="text/css">
	.st0{fill:#48A8DF;}
	.st1{fill:#E20083;}
	.st2{fill:#93BB0D;}
	.st3{fill:#062A71;}
	.st4{fill:#F7EFCD;}
</style>
<g>
	<g>
		<path class="st0" d="M9.7,311.8l3.1,4.5l4.5,3.1l3.1,4.5l4.4,3.3l3.9,3.8l3.6,4.1l3.7,4l3.9,3.8l4,3.7l4,3.7l3.8,3.8l3.4,4.3
			l4.4,3.2l3.2,4.5l3.9,3.7l4.2,3.5l3.5,4.2l3.4,3.1c0.9-0.9,1.9-1.9,3-2.6c1.2-0.8,2.9-0.7,4.3-1.2c1.3-0.5,2.4-2,3.9-2.2
			c1.4-0.3,2.9,0.3,4.4,0.3c1.5,0,2.8,0.8,4.2,1c1.4,0.3,2.8,0.4,4.1,1c1.3,0.6,2.5,1.3,3.7,2.1c1.2,0.8,2.1,1.8,3.1,2.8
			c0.1,0.1,0.2,0.2,0.3,0.3l0.7-0.7l3.5-4.1l4.3-3.3l3.8-3.9l3.9-3.7l3.2-4.4l4.2-3.5l3.9-3.8l3.8-3.9l3.5-4.1l4.1-3.5l3.7-3.9
			l3.7-3.9l4-3.7l3.8-3.9l3.8-3.8l3.6-4.1l3.8-3.9l4.1-3.5l3.8-3.9l3.9-3.6l-0.2-0.2l-3.6-4.1l-4.5-3.1l-4-3.6l-4.2-3.4l-4.3-3.2
			l-4.9-2.3l-4.3-3.3L151,279l-4.9-2.2l-5.2-1.5l-5.1-1.6l-4.9-2.2l-5.1-1.7l-5.3-0.9l-5.3-0.9l-5.3-0.9l-5.4-0.4l-5.4,0.1l-5.4-0.7
			l-5.4,0.1l-5.4,0.2l-5.3,1.2l-5.4,0.1l-5.2,1.6l-5.4,0.5l-5,2.1l-5.2,1.3l-5.2,1.5l-4.8,2.6l-5,1.9l-4.4,3.2l-5.1,1.9l-4.2,3.5
			l-4.6,2.8l-4.1,3.5L9.7,297l-4.1,3.5l-3.4,4.2L2,304.8l3.8,3.2L9.7,311.8z"/>
		<path class="st1" d="M223.4,396.4l-0.3,0.2l-0.2,0.2l-0.7,0.3l-1,1l-4.9,3.7l-2.1,0.9l-4.3,3.2l-4.3,3.2l-1.6,1.9l-6.3,4.8
			l-0.4,0.2l-0.5,0.5l-9.4,7l-3.2,2l-4.4,3.2l-4.5,3l-2.2,2.5l-11.6,8.7l-3.4,1.8l-1.6,2l-5.7,4.3l-1.1,0.6l-2.8,2.4l-6.6,5
			l-3.8,2.2l-2.1,2.2l-5.2,3.9l-1.1,0.7l-0.9,0.8l-13,9.8l-3.6,2l-2.1,2.3l-8.1,6.1l-2.8,1.4l-3.9,3.4l-0.1,0.2l0-0.1l-4.2-2.9
			l-4.1-3.5l-1.7-0.9l-19.9-15.1l-0.1,0l-4.2-3.4l-4.2-3.5l-4.4-3.2l-3.8-2.5l-1.9-1.5l-3-2.4l-2-1.4l-3.2-2.4l-3.1-3.1l-3.5-1.9
			l-3.2-2.4l-2.2-2l-1.7-0.9l-6.6-5l-0.5-0.5l-3.9-3.8l-3.9-2l-4.3-3.3l-0.8-0.7l-4.1-3.6l-4.2-3.5l-4.3-3.3l-4.3-3.2l-2.6-1.2
			l-4-3.1l-1.9-2.4l-4.6-2.9l-2-1.2l-3.9-3l-2.5-2.8l-0.4,0.3l-0.2,0.1c0,0,0,0,0,0.1l0,0l-0.1-0.1l0,0c0,0.1,0,0.1,0,0.2
			c0,0.1,0,0.1,0,0.2c0,1.9,0.1,3.8,0.1,5.7c0.2,5.2,0.8,10.3,1.6,15.3c0.1,0.7,0.2,1.4,0.4,2.1c0.1,0.5,0.2,1.1,0.3,1.7
			c0.2,1.5,0.4,2.9,0.7,4.3c0,0,0,0.1,0,0.1c0.2,0.7,0.4,1.4,0.5,2.1l0,0.1l0.1,0.7l0.6,1.5c0.2,0.6,0.4,1.2,0.6,1.8
			c0.1,0.5,0.3,1.1,0.5,1.6c0.1,0.4,0.2,0.8,0.4,1.3c0.9,2.8,1.8,5.6,2.8,8.3c0,0,0,0.1,0.1,0.1c2.6,6.9,5.8,13.5,9.5,19.8l0.1,0.3
			l2.5,4.8l2,2.2c1.3,1.9,2.7,3.8,4.2,5.7c0.3,0.3,0.5,0.7,0.8,1c0.2,0.3,0.4,0.6,0.6,0.8c0.1,0.2,0.3,0.3,0.4,0.4
			c0.7,0.9,1.4,1.7,2.1,2.6c0.9,1,1.7,2,2.6,3l0.8,1l1.3,1.2c2.9,3,5.8,5.9,9,8.6l1.3,1.3l1.5,1.2c0.5,0.4,1,0.8,1.4,1.1
			c0.1,0.1,0.2,0.1,0.2,0.2c0.5,0.4,1.1,0.9,1.6,1.3l3.5,3.1l4.5,2.9l4.6,2.8l4.7,2.7l4.8,2.5l4.7,2.6l3.2,0.8c0,0,0,0,0,0
			c0.8,0.4,1.6,0.8,2.5,1.1c1.2,0.5,2.5,1.1,3.7,1.5c1,0.4,2.1,0.7,3.2,0.9c0.1,0,0.1,0,0.2,0.1c0.1,0,0.2,0.1,0.3,0.1l2,1.1
			l5.3,0.9l5.2,1.6l3.1,0.1c5.8,1.1,11.8,1.7,17.8,2c0.3,0,0.6,0,0.9,0c0.3,0,0.7,0,1,0c1,0.1,2.1,0.2,3.2,0.2l0.6,0.1l0.1,0
			l0.8-0.1c0.8,0,1.6-0.1,2.5-0.1c0.6,0,1.2,0,1.8-0.1c1,0,2-0.1,3-0.1l2.7,0.3l3.5-0.8l0.1,0c1.1-0.1,2.2-0.3,3.2-0.4
			c0.3,0,0.7-0.1,1-0.1c0.7-0.1,1.3-0.2,2-0.3l0.9-0.1l1.9-0.4c1.7-0.2,3.3-0.4,5-0.8c0.2,0,0.4-0.1,0.7-0.1
			c0.5-0.1,1.1-0.3,1.6-0.4c0.8-0.2,1.6-0.4,2.3-0.6c2.9-0.8,5.9-1.6,8.7-2.6l0.8-0.2l0.4-0.2c0.1,0,0.1,0,0.2-0.1
			c1.1-0.4,2.1-0.9,3.1-1.4c0.3-0.1,0.5-0.3,0.8-0.4c0.4-0.1,0.8-0.3,1.2-0.5c0.6-0.2,1.1-0.4,1.7-0.7l2.7-0.6l4.2-2.6
			c0.3-0.1,0.6-0.3,0.9-0.4l4.4-1.9l4.6-2.8l1.9-1.3c0.6-0.4,1.3-0.8,1.9-1.2c0.1-0.1,0.3-0.2,0.4-0.3c2.7-1.7,5.3-3.5,7.8-5.5
			c0.8-0.6,1.6-1.2,2.3-1.8c0.1-0.1,0.2-0.2,0.3-0.2c0.1-0.1,0.2-0.2,0.3-0.3l0.2-0.1l2.5-1.6l3.9-3.7l0.6-0.6l0.1-0.1
			c0.5-0.4,0.9-0.8,1.3-1.2c0.6-0.6,1.2-1.1,1.8-1.7c0.6-0.6,1.1-1.2,1.7-1.8l2.2-2.1l3.7-3.9l3.2-4.3l2.3-3.6
			c0.5-0.7,1-1.4,1.5-2.1c1.3-1.6,2.5-3.3,3.6-5c1.3-2.1,2.6-4.3,3.8-6.5c0.4-0.8,0.8-1.5,1.2-2.3c0.7-1.3,1.3-2.6,2-3.9
			c0.7-1.4,1.2-2.8,1.8-4.2c0-0.1,0.1-0.3,0.2-0.4c0.2-0.5,0.5-1,0.7-1.5l0.4-0.7l1.2-2.3l0.8-2.8l0.3-1.1c0.3-1,0.7-1.9,1-2.9
			l0.9-2.3l0.4-1l0.5-2.8c0.4-1.3,0.7-2.6,1-3.9l1.4-3.7l0.5-5.4l0.8-5.3l0.8-5.3l-0.1-2.5c0.2-2.7,0.3-5.5,0.3-8.2L223.4,396.4z"/>
		<path class="st2" d="M185.7,304.8l-2.6,4.5l-1.8,5.1l-2.8,4.6l-2.1,5l-2.1,4.9l0,0l-2.9,4.5l-0.1,0.1l-2.2,4.9l-2.5,4.8l-2,5
			l-2.6,4.8l-2.6,4.7l-2.4,4.8l-2.2,4.9l-2.2,4.9l-2.4,4.8l0,0.1l-2.6,4.5l-0.1,0.2l-2,4.9l0,0.1l-2.8,4.5l-0.1,0.1l-2.3,4.9
			l-2.4,4.8l-2.1,4.9l0,0.1l-2.5,4.6l-0.1,0.2l-2.4,4.8l-2,5l-2.4,4.9l-2.2,4.9l-2.3,4.8l0,0.1l-2.4,4.4l-0.2,0.3l-2,4.8l-0.1,0.2
			l-2.9,4.6l0,0l-2.5,4.8l-1.6,5.2l0,0l-2.3,4.4l-0.2,0.4l-2.2,4.8l0,0.1l-2.5,4.8l-2.7,4.4l-0.1,0.2l-0.8,1.9c0,0,0.1-0.1,0.1-0.2
			c1.6-2.3,16.2-20.9,20.6-26.2c4.6-5.6,5-5.2,9.6-10.8c4.6-5.6,5-5.2,9.6-10.8c4.6-5.6,3.7-6.3,8.3-11.8c4.6-5.6,4.7-5.5,9.2-11.1
			c4.6-5.6,5.3-4.9,9.9-10.5c4.6-5.6,4.2-5.9,8.8-11.4c4.6-5.6,4.9-5.3,9.5-10.9c4.6-5.6,4.7-5.5,9.3-11c4.6-5.6,4.2-5.8,8.7-11.4
			c4.3-5.3,7-8.4,9.3-11.3l-2-4.3l-2.2-4.9c-1.3-2.4-2.7-4.7-4.1-7l-1.6-2.1l-2.9-4.5l-3.4-4.2l-1.4-2.2c-2.1-2.6-4.4-5.1-6.7-7.6
			L185.7,304.8L185.7,304.8L185.7,304.8z"/>
		<path class="st2" d="M-13.5,357.7c2.5,3.1,5.7,6.7,9.1,10.8c2.7,3.4,6.5,6.4,9.7,10.3c2.8,3.5,5.7,7.2,8.8,11
			c2.9,3.6,5.3,7.7,8.3,11.4c2.9,3.6,5.5,7.6,8.5,11.3c3,3.6,6.4,6.9,9.4,10.5c3,3.7,5.7,7.6,8.6,11.2c3,3.7,6.1,7.3,9,10.9
			c3.1,3.8,6.7,6.9,9.5,10.4c3.2,3.9,6,7.7,8.8,11c3.4,4.1,6.4,7.8,8.9,10.9c0.7,0.9,1.3,1.7,1.9,2.6c0,0.1,0.1,0.1,0.2,0.2
			l-0.4-0.9l-2-5l-2.8-4.6l-2.4-4.8l-1.8-5.1l-0.2-0.3l-3.1-4.1l0-0.1l-1.6-5.1l-2.2-4.9l-0.2-0.3l-2.9-4.2l0,0l-1.9-5l-2.8-4.6
			l-2.3-4.9l-2-5l-2.1-5l-0.2-0.3l-3-4.2l0,0l-2.2-4.9l-2.5-4.8l-1.5-5.3l-3-4.5l-2.7-4.7l-2.2-4.9l-2-5.1l-2.9-4.6l-1.7-5.2
			l-2.9-4.6l-2.5-4.8l-1.6-5.2l-2.7-4.7l-1.9-5.1l-3-4.5l-2.4-4.8l-2.3-4.9l-1.8-5.1l-3-4.6l-2.2-5l-2.4-4.9l-2-4.5l0,0l-3.5,3.2
			l-3.3,4.3l-2.2,2c-2.2,2.7-4.2,5.4-6.2,8.3l-1.5,2.5l-2.9,4.5l-2.6,4.7l-1.3,2.1c-1.2,2.3-2.4,4.7-3.4,7.2
			C-18.6,350-16.3,354.3-13.5,357.7z"/>
		<g>
			<path class="st3" d="M181.8,308.3l-3.8,3.9l-4.1,3.5l-3.8,3.9l-3.6,4.1l-3.8,3.8l-3.8,3.9l-4,3.7l-3.7,3.9l-3.7,3.9l-4.1,3.5
				l-3.5,4.1l-3.8,3.9l-3.9,3.8l-4.2,3.5l-3.2,4.4l-3.9,3.7l-3.8,3.9l-4.3,3.3l-3.5,4.1l-0.7,0.7c1,0.8,2.4,1.3,3.2,2.4
				c0.8,1.2,1.1,2.7,1.7,4c0.5,1.3,0.8,2.7,1.1,4.1c0.3,1.4,0.3,2.8,0.3,4.2c0,1.5-0.2,2.8-0.4,4.2c-0.3,1.4-0.2,3.3-0.7,4.6
				c-0.6,1.3-1.6,2.1-2.4,3.3c-0.8,1.2-1.7,2.3-2.7,3.3c-1,1-1.7,2.5-2.9,3.3c-1.2,0.8-3,0.5-4.3,1c-1.3,0.5-2.3,1.8-3.7,2.1
				c-0.1,0-0.3,0-0.4,0c-1.3,0-2.7-0.5-4-0.5c-1.5,0-3,1.1-4.4,0.8c-1.4-0.3-2.7-1.3-4-1.9c-1.3-0.6-2.3-1.7-3.5-2.5
				c-1.2-0.8-2.9-0.9-4-1.9c-1-1-1.8-2.3-2.6-3.5c-0.8-1.2-1.9-2.3-2.5-3.6c-0.5-1.3-0.2-3-0.5-4.4c-0.3-1.4-0.8-2.8-0.8-4.2
				c0-1.5,0.7-2.8,0.9-4.2c0.3-1.4,0.2-2.9,0.8-4.2c0.6-1.3,0.7-3,1.5-4.2c0.8-1.2,2-2.2,3-3.2c0.1-0.1,0.2-0.2,0.3-0.3l-3.4-3.1
				l-3.5-4.2l-4.2-3.5l-3.9-3.7l-3.2-4.5l-4.4-3.2l-3.4-4.3l-3.8-3.8l-4-3.7l-4-3.7l-3.9-3.8l-3.7-4l-3.6-4.1l-3.9-3.8l-4.4-3.3
				l-3.1-4.5l-4.5-3.1l-3.1-4.5L5.9,308L2,304.8l-0.6-0.5l0.2,0.4l0.2,0.4l2,4.5l2.4,4.8l2.2,4.9l3,4.6l1.8,5.1l2.3,4.9l2.4,4.8
				l3,4.5l1.9,5.1l2.7,4.7l1.6,5.2l2.5,4.8l2.9,4.6l1.7,5.2l2.9,4.6l1.9,5l2.2,4.9l2.6,4.7l3,4.5l1.5,5.2l2.5,4.8l2.2,4.9l3.1,4.5
				l2.1,5l2,5l2.3,4.9l2.8,4.6l1.9,5.1l3.1,4.5l2.2,4.9l1.6,5.2l3.3,4.4l1.8,5.1l2.4,4.8l2.8,4.6l1.9,5L87,480l0,0.1l0.3,0.5
				c0,0,0.1,0.1,0.1,0.1c0.2,0.3,1.4,2.5,1.5,3l2.6,4.7l0.2,0.6l0.9,2.3c0.3,0.5,0.6,1,0.9,1c0.7,0.1,1.4-1.4,1.6-1.8
				c0.2-0.4,1.3-2.5,1.4-2.7c0,0,0.1-0.1,0.2-0.2l1.4-3.3l0.3-0.7l1.1-2.8c0,0,0,0,0,0l0.9-2.2l2.9-4.6l2.5-4.8l2.2-4.9l2.5-4.8
				l1.6-5.2l2.5-4.8l2.9-4.6l2.1-5l2.5-4.8l2.3-4.9l2.2-4.9l2.4-4.8l2-5l2.4-4.8l2.6-4.7l2.2-4.9l2.4-4.8l2.3-4.9l2.9-4.6l2-5
				l2.7-4.7l2.4-4.8l2.2-4.9l2.2-4.9l2.4-4.8l2.6-4.7l2.6-4.7l2-5l2.5-4.8l2.2-4.9l3-4.5l2.1-5l2.1-5l2.8-4.6l1.8-5.1l2.6-4.5l0-0.1
				l0.1-0.1l-0.1,0.1L181.8,308.3z"/>
			<path class="st3" d="M-34.1,284.5l-0.3,0.3l6.5,8.8l3.4-3.8l-5.6-3C-31.5,286.1-32.8,285.3-34.1,284.5z"/>
			<path class="st3" d="M254.5,370.3l-3-0.2l0.1,0.5l0.7,4.6l1.8-0.7l2.1-0.9l2-0.8c1.4-0.6,2.9-1.1,4.3-1.5l-0.1-0.5L254.5,370.3z"
				/>
			<path class="st3" d="M-64.1,335.3c-2.5-0.9-3.5,0.7-4.3,2.8l-0.3,0.9l5.6,2.1l0.3-0.8C-62,338.3-61.6,336.2-64.1,335.3z"/>
			<path class="st3" d="M51,231.4c-3.9,1-5.6,4.7-4.6,8.3c1,3.9,4.3,5.9,8,4.9c3.7-1,5.7-4.3,4.7-8.2
				C58.1,232.8,54.9,230.4,51,231.4z"/>
			<path class="st3" d="M285.5,361.4c-2.5-13.6-6.5-27-12-39.8c-9.8-23.1-23.7-43.8-41.5-61.6c-17.8-17.8-38.5-31.7-61.6-41.5
				c-23.9-10.1-49.3-15.3-75.4-15.3c-26.1,0-51.5,5.1-75.4,15.3C-3.5,228.2-24.2,242.2-42,260c-17.8,17.8-31.7,38.5-41.5,61.6
				c-4.1,9.7-7.4,19.7-9.8,29.8l0,0c0,0.2-0.1,0.4-0.1,0.5c-0.7,3-1.3,6-1.9,9c-0.1,0.7-0.2,1.3-0.4,1.9c-0.1,0.4-0.1,0.8-0.2,1.2
				c-8.3,46.8,1.6,75.6,1.6,75.6l0,0c0.4,1.7,0.8,3.5,1.3,5.2c0.7,2.5,1.4,4.9,2.1,7.3c0.5,0.1,1,0.1,1.5,0.1c0.9,0.1,1.9,0,2.6-0.2
				c0.7-0.1,4.6-1.2,5.7-1.6c1-0.4,5-2.5,5.8-2.8c0.8-0.3,3.9-0.4,4.3-0.2c0.7,0.4,0.5,1.6-0.2,2.5c-0.5,0.6-3.3,2.9-3.8,3.4
				c-0.7,0.7-1.4,1.2-1.8,1.8c-0.6,0.8-1.2,1.6-1.5,2.3c-0.5,1-0.3,2-0.4,2.6c-0.4,1.6,0.3,1.4,2,1.2c1-0.1,4.6-1.1,5.6-1.3
				c0.9-0.2,1.9-0.6,3-0.9c0.9-0.2,1.6-0.3,2.3-0.6c0.8-0.4,1.6-0.8,2.1-1.3c0.7-0.7,1.4-1.2,2-1.7c0.8-0.7,1.7-1.1,2.8-0.8
				c1.2,0.3,2.3,1.2,2.9,1.4c0.6,0.2,1.4,0.7,2.7,0.7c0.8,0,4.4-0.8,5.2-1c0.9-0.2,1.7-0.5,2.4-0.7c1.3-0.3,2.2-0.5,2.6-0.7
				c0.3-0.2,0.5-0.4,0.5-0.7c0-0.3-0.1-0.6-0.3-1c0-0.1-0.1-0.2-0.3-0.4c-0.7-0.9-2.6-3.1-3.3-3.6c-0.8-0.7-1.8-1.1-2.6-1.5
				c-1-0.5-1.9-1.1-2.8-1.4c-2-0.7-0.4-1.6,0-2.1c0.4-0.5,1.3-0.9,2.4-1.5c0.3-0.2,1.3-0.7,2.3-1.1c1.2-0.6,2.5-1.2,3-1.4
				c1-0.5,1.6-1.3,2-1.8c0.8-1,0.8-2,0.8-2.6c-0.1-1.2-0.3-1.1-0.4-2.2c0-0.1,0-0.2-0.1-0.4c-0.1-0.8-0.2-1.7-0.3-2.7
				c-0.1-1-0.2-1.9-0.3-2.8c-0.2-1.3-0.4-2.3-0.5-2.7c-0.1-0.9-0.6-1.3-1.1-1.4c-0.4-0.1-0.9,0-1.2,0.3c-0.6,0.5-1.2,2.5-2.2,4.1
				c-0.5,0.8-0.5,0.3-1.2,1.3c-0.7,0.9-1,1.2-1.5,1.7c-0.1,0.1-0.2,0.2-0.3,0.3c-0.6,0.8-1.6,1.1-2.3,1.7c-0.7,0.6-3.8,2.3-4.6,2.7
				c-0.9,0.5-8.2,1.9-8.4,1.9c-0.8,0-1.6-0.1-2.4-0.2c-0.9-0.1-1.8,0.1-2.6-0.1c-0.9-0.2-4.2-1.6-4.9-2c-0.8-0.5-2-1-2.6-1.5
				c-1.1-0.9-2.1-1.6-2.3-1.7c-0.6-0.6-1-1.4-1.4-2.1c-0.5-0.7-1-1.6-1.3-2.4c-0.4-0.9-1-4.1-1.2-5.4c-0.1-0.8-0.4-4.4-0.3-5.3
				c0.1-0.9,0.2-1.9,0.4-2.8c0.2-0.9,0.6-2.2,0.9-3c0.4-0.9,1-1.7,1.4-2.4c0.4-0.9,1.3-1.6,1.7-2.2c0.7-1.1,1.9-1.6,2.2-2
				c0.7-0.8,1.6-1,2.4-1.4c1-0.5,2-0.9,2.8-1.2c2.2-0.7,5.9,0.4,6.6,0.8c0.9,0.5,4.1,3.6,4.6,4.4c0.6,0.8,0.8,1.8,1.1,2.6
				c0.5,1.3,0.4,5,0.3,5.7c-0.2,0.9-0.9,1.9-1.3,2.5c-0.5,0.8-1.3,1.5-2,2.1c-0.7,0.6-1.5,0.9-2.2,1.3c-1.1,0.5-2.2,0.9-2.6,0.9
				c-0.9,0.1-1.9,0-2.5-0.1c-0.9-0.1-1.7-0.6-2.4-0.9c-0.9-0.4-1.4-1.3-1.8-1.7c-0.7-1-1.4-2.6-1.5-3.5c-0.1-1.5,0.6-3.5,0.9-4
				c1.1-1.8,4.3-2.7,5.6-2.1c0.8,0.4,2.8,1.4,3,2.3c0.3,0.9,0.7,3.6,0.2,4.3c-0.6,0.9-2.4,2.5-1.8,2.3c0.7-0.2,1.9-0.2,2.7-0.8
				c0.8-0.7,1.5-1.4,1.9-2.2c0.5-0.9,0.6-2.2,0.6-3.1c-0.1-1-0.4-2.6-0.8-3.6c-0.4-0.9-2.2-3.2-4.3-3.6c-0.9-0.2-1.1-0.9-2.5-0.4
				c-0.9,0.1-2.2,0-3,0.4c-0.8,0.4-3.3,2.1-4.5,3.5c-0.8,0.9-1.8,4.4-2,5.3c-0.2,0.9-0.4,4.8-0.3,5.7c0.2,0.9,1.2,4.5,1.7,5.3
				c0.5,0.9,0.9,1.7,1.5,2.4c0.6,0.7,4.1,2.5,4.9,2.9c0.8,0.4,1.6,1,2.6,1.2c0.9,0.2,4.9,0.6,5.9,0.5c0.9-0.1,4.1-1,4.9-1.4
				c0.9-0.4,4.2-1.5,4.9-2c0.8-0.6,1.9-0.9,2.5-1.6c0,0,0,0,0.1-0.1c0.2-0.2,0.4-0.5,0.7-0.8c0.8-1,1.9-2.4,2.3-3
				c0.2-0.3,0.6-1.1,1.1-2.1c0.9-1.5,1.7-3.3,2.5-5.3c1-2.5,1.8-5.4,2.2-8.6c0,0,0.2-4,0.5-10.3c0.2-3.4,0.4-7.6,0.6-12
				c0,0,0-0.1,0-0.1c0-1,0.2-2.5,0.5-4.2c0.3-2.4,0.8-5.2,1.2-7.4c0.4-2.5,0.8-4.4,0.8-4.4C-26.8,305.9,28.6,259,95,259
				c67.4,0,123.4,48.3,135.6,112.1l2.4,18l-0.1,11.9l0,3.7l-0.2,0.8l-0.1,0.6c-0.5,8.2-1.8,16.4-3.8,24.6c0-0.1,0.1-0.1,0.1-0.2
				c2.1-3.8,4.1-6.5,5.7-8.5c0.2-0.2,0.3-0.4,0.5-0.6c0.7-0.4,1.9-1.7,3.1-2.8c0.3-0.2,0.6-0.4,0.9-0.6c0.2-0.1,0.4-0.1,1-0.5
				c0.5-0.3,0.9-0.5,1.2-0.7c0.4-0.2,0.7-0.3,1.2-0.5c0.9-0.5,2-0.5,2.8-0.8c0.9-0.3,4.4-0.8,5.4-0.9c1.1-0.1,8.5,1.2,8.7,1.3
				c0.8,0.3,1.5,0.7,2.2,1.1c0.8,0.4,1.8,0.6,2.5,1.1c0.8,0.6,3.4,3.1,3.9,3.7c0.6,0.8,1.6,1.7,1.9,2.4c0.7,1.3,1.4,2.3,1.5,2.5
				c0.3,0.8,0.4,1.7,0.6,2.5c0.2,0.9,0.3,1.9,0.4,2.8c0,1-0.6,4.3-0.9,5.7c-0.2,0.8-1.2,4.4-1.6,5.1c-0.4,0.9-0.9,1.8-1.4,2.5
				c-0.6,0.8-1.4,1.9-2,2.5c-0.7,0.7-1.6,1.3-2.3,1.8c-0.7,0.7-1.8,1-2.5,1.5c-1.1,0.8-2.4,0.8-2.8,1.1c-1,0.5-1.9,0.4-2.9,0.5
				c-1.2,0.1-2.2,0.1-3.1,0.1c-2.4-0.1-5.5-2.5-6-3.2c-0.6-0.8-2.6-5-2.8-5.9c-0.2-1-0.1-2.1-0.1-2.9c0-1.4,1.4-5,1.8-5.6
				c0.5-0.8,1.5-1.5,2.2-1.9c0.8-0.6,1.8-1,2.7-1.2c0.9-0.3,1.8-0.3,2.5-0.4c1.3-0.1,2.4,0,2.8,0.1c0.9,0.2,1.8,0.7,2.4,1
				c0.9,0.4,1.5,1.2,1.9,1.7c0.7,0.8,0.9,1.8,1.1,2.3c0.3,1.3,0.4,3.1,0.1,3.9c-0.5,1.5-1.9,3.1-2.3,3.4c-1.7,1.4-5.2,1-6.1,0
				c-0.7-0.7-2.1-2.4-2-3.3c0.1-1,0.7-3.7,1.4-4.2c0.9-0.6,3.3-1.5,2.6-1.6c-0.7-0.1-1.9-0.5-2.9-0.3c-1,0.3-2,0.8-2.6,1.4
				c-0.8,0.7-1.4,1.9-1.7,2.8c-0.3,1-0.6,2.6-0.5,3.7c0,1,0.9,3.9,2.8,5.1c0.8,0.5,0.7,1.2,2.3,1.3c0.9,0.2,2.1,0.8,3,0.7
				c0.9-0.1,3.9-0.7,5.7-1.7c1.1-0.6,3.3-3.6,3.9-4.3c0.6-0.8,2.1-4.5,2.4-5.3c0.2-1,0.5-4.8,0.3-5.7c-0.1-1-0.3-1.9-0.6-2.8
				c-0.3-0.9-3-3.9-3.7-4.6c-0.7-0.7-1.2-1.6-2-2.1c-0.8-0.5-4.5-2.4-5.5-2.7c-0.9-0.2-4.3-0.5-5.2-0.5c-1,0-4.6-0.2-5.4,0.1
				c-0.9,0.3-2.1,0.2-3,0.6c-0.4,0.2-1.2,0.6-2,1.1c-1,0.6-2,1.2-2.4,1.5c-0.6,0.5-3,2.5-4.8,4.8c-0.4,0.5-0.8,1.1-1.1,1.6
				c-0.5,0.9-0.7,2-0.9,2.8c-0.3,1.1-0.6,2-0.6,2.9c0,0.5,0.2,0.9,0.3,1.4c0.1,0.4,0.2,0.9,0.3,1.3c0.1,0.9,0.4,1.8,0.6,2.7
				c0.2,0.6,1.2,3.2,2,5.3c0.5,1.3,1,2.4,1.2,2.7c0.5,0.8,2.9,3.8,3.5,4.5c0.6,0.8,3,3.9,3.6,4.5c1,1,1.6,1.8,1.9,2.1
				c1.7,1.6,2.1,1.3,3.9,1.4c0.8,0,12.5-2.1,13.3-2.3c1.6-0.5,4.1-1.9,4.7-2.3c0.8-0.5,1.8-0.7,2.5-1.2c0.8-0.5,1.5-1,2.2-1.5
				c0.8-0.5,5.5-4.8,6-5.5c0.6-0.7,3-3.6,3.4-4.4c0.5-0.9,0.9-1.8,1.3-2.6c0.4-0.9,1-1.6,1.4-2.4c0.4-0.9,0.8-1.8,1.1-2.6
				c0.4-0.9,0.5-1.8,0.9-2.6c0.2-0.5,0.4-1,0.5-1.6c3.3-15.6,3.3-39.6,3.3-39.6C288.2,376.9,287.4,371.1,285.5,361.4z M71.3,216.1
				v10c-3-3.8-6.1-6.7-11.3-8.2L71.3,216.1z M-52.6,381.3l-4.4-0.7l-19.4-2.9l-0.7,7l-11.3-1.7l3.8-24.8l0.3-1.7l1.9,0.3l9.4,1.4
				l-1.4,6.9l19.4,3l4.3,0.6L-52.6,381.3z M-42.8,342.4l-4.8,0.5l-7.7,0.8l-0.1,0.2l6.5,2.4l4,1.5l-3.5,9.4l-0.8,2.2l-3.4-1.3
				l-9.9-3.7l-6-2.2l-9.9-3.7l-3.7-1.4l5.4-14.4c2.8-7.4,8.2-12.5,16.5-9.4c5,1.9,6.3,4.6,6.2,9.5l0.3,0.1c0.7-0.4,1.5-1,2.7-1.3
				l9.4-2.2l3.9-0.9L-42.8,342.4z M-36,327.8l-3.5-2.1l-26.7-15.8l6.5-11l26.7,15.8l3.4,2L-36,327.8z M-12.7,295.6l-3.6-1.8
				l-0.4-0.2l-6.4,7.2l0.3,0.3l2.4,3.3l-8.9,10.1l-1.6-2.7l-16.7-29.5l9.3-10.6l31.8,12.7l2.8,1.1L-12.7,295.6z M-1.1,284.7l-2.3-3
				l-12.4-16l-5.4,4.6l-7-9l21.2-16.4l7,9l-5.8,4l12.4,16l2.3,3L-1.1,284.7z M16.7,271.5l-1.6-3.1l-14.6-28l11.3-5.9l11,21.1
				l9.5-4.9l3.7,7.1l1.5,2.9L16.7,271.5z M68.3,248.5c-2.7,3.2-6.5,5.6-11.1,6.8c-4.6,1.2-9.2,1-13.1-0.6c-4.8-1.9-8.6-6-10.2-12
				c-2.8-10.7,3.9-19.8,14.2-22.4c11.2-3,21.1,3.1,23.3,12.8C73,239.1,71.6,244.4,68.3,248.5z M113.9,247.6l0,2.8l-12.2-0.2
				l-2.2-3.8l-8.7-14.8l-0.4,0c0.4,2.4,0.7,4.7,0.7,7l-0.1,7.7l-0.1,3.7l-12.2-0.2l0-2.8l0.5-32.3l12.2,0.2l11.1,19.6l0.4,0
				c-0.5-2.9-1-6-0.9-8.9l0.2-10.5l12.2,0.2L113.9,247.6z M156.1,263.7l-0.4-4.4l-0.4-4c-0.1-0.8,0-1.5,0.2-2.3l-0.3-0.1
				c-0.5,0.7-1.2,1.3-1.8,1.8l-2.9,2.3l-3.5,2.8l-13.3-5.7l2.8-1.9l15.8-10.5l-3.7-19.4l13.2,5.6l0.4,5.6c0.1,1.1,0,2.1-0.1,3.1
				l0.3,0.1c0.6-0.8,1.4-1.5,2.2-2.2l4.2-3.6l13.2,5.6l-16.5,10.8l3.5,18.5l0.7,3.5L156.1,263.7z M191.8,281.8l-2.1,3l-19.4-14
				l2.1-2.9l18.4-25.6l19.1,13.8l-5.6,7.8l-8.7-6.3l-2,2.7l8,5.7l-5.3,7.4l-8-5.7l-2,2.8l9,6.5L191.8,281.8z M211.8,302.1l-2.7,2.6
				l-16.2-16.9l2.7-2.6l22.6-21.6l8.8,9.2l-17.2,16.5l7.4,7.7L211.8,302.1z M229,294.5l9.4,13.7L230,314l-9.4-13.7L229,294.5z
				 M230.9,343.1l4.2-1.8l7-3l-3.1-7.2l-7.1,3l-4.1,1.8l-4.8-11.3l3.3-1.4l28.9-12.4l4.8,11.3l-10.9,4.6l3.1,7.2l10.9-4.6l4.5,10.5
				l0.3,0.8l-28.7,12.3l-0.5,0.2l-3,1.3L230.9,343.1z M261,383.6l-0.3,0.2l-7.1,3.9l-0.7,0.4l-6.9,3.7l-3.6,2l-0.3-1.8l0-0.1
				l-1.3-8.5l-0.5-2.9l1.5-0.7l1.5-0.6l1.1-0.5l-0.2-1.1l-1.3-8.4l-4.5-0.3l-1.4-9.3l-0.6-4l1.4,0.3l2.4,0.4l0.6,0.1l1.9,0.3l5.5,1
				l23.1,4.2l1.7,0.3l0.5,3.5l0,0l0.9,5.9l0.2,1.3l0.6,3.1L261,383.6z M266,383.7l9.4-4.9l0.6,8.3L266,383.7z"/>
		</g>
		<g>
			<path class="st0" d="M278.5,319.5c-10-23.7-24.4-45-42.7-63.3c-18.3-18.3-39.6-32.6-63.3-42.7c-24.6-10.4-50.7-15.7-77.5-15.7
				c-26.9,0-53,5.3-77.6,15.7c-23.7,10-45,24.4-63.3,42.7c-18.3,18.3-32.6,39.6-42.7,63.3c-10.4,24.6-15.7,50.7-15.7,77.5
				c0,26.9,5.3,53,15.7,77.5c10,23.7,24.4,45,42.7,63.3c18.3,18.3,39.6,32.6,63.3,42.7C42,590.9,68.1,596.2,95,596.2
				c26.9,0,53-5.3,77.5-15.7c23.7-10,45-24.4,63.3-42.7c18.3-18.3,32.6-39.6,42.7-63.3c10.4-24.6,15.7-50.7,15.7-77.5
				C294.2,370.1,288.9,344,278.5,319.5z M284.9,434.4c-0.3,0.8-0.5,1.7-0.9,2.6c-0.3,0.8-0.7,1.7-1.1,2.6c-0.4,0.8-0.9,1.6-1.4,2.4
				c-0.4,0.8-0.8,1.7-1.3,2.6c-0.5,0.7-2.8,3.6-3.4,4.4c-0.6,0.7-5.3,5-6,5.5c-0.7,0.5-1.4,1-2.2,1.5c-0.8,0.5-1.7,0.7-2.5,1.2
				c-0.7,0.4-3.1,1.7-4.7,2.3c-0.7,0.3-12.4,2.4-13.3,2.3c-1.8-0.1-2.2,0.2-3.9-1.4c-0.3-0.3-1-1.2-1.9-2.1
				c-0.6-0.6-2.9-3.7-3.6-4.5c-0.6-0.7-3-3.7-3.5-4.5c-0.2-0.3-0.7-1.4-1.2-2.7c-0.9-2.1-1.9-4.7-2-5.3c-0.2-0.9-0.5-1.7-0.6-2.7
				c-0.1-0.4-0.2-0.9-0.3-1.3c-0.1-0.4-0.2-0.9-0.3-1.4c0-0.9,0.3-1.9,0.6-2.9c0.2-0.8,0.3-1.9,0.9-2.8c0.3-0.6,0.7-1.1,1.1-1.6
				c1.7-2.3,4.1-4.3,4.8-4.8c0.4-0.3,1.4-1,2.4-1.5c0.8-0.5,1.6-0.9,2-1.1c0.8-0.4,2-0.3,3-0.6c0.8-0.3,4.4-0.1,5.4-0.1
				c0.9,0,4.3,0.3,5.2,0.5c1,0.3,4.7,2.1,5.5,2.7c0.8,0.5,1.3,1.4,2,2.1c0.7,0.7,3.3,3.6,3.7,4.6c0.3,0.9,0.4,1.8,0.6,2.8
				c0.1,0.9-0.1,4.7-0.3,5.7c-0.2,0.9-1.8,4.5-2.4,5.3c-0.6,0.8-2.9,3.8-3.9,4.3c-1.8,1-4.7,1.6-5.7,1.7c-0.9,0.1-2.1-0.5-3-0.7
				c-1.6-0.1-1.5-0.8-2.3-1.3c-1.9-1.2-2.8-4-2.8-5.1c-0.1-1.1,0.2-2.8,0.5-3.7c0.3-0.9,0.9-2.1,1.7-2.8c0.6-0.6,1.6-1.1,2.6-1.4
				c1-0.2,2.1,0.2,2.9,0.3c0.7,0.1-1.6,1-2.6,1.6c-0.8,0.5-1.3,3.2-1.4,4.2c-0.1,0.9,1.4,2.7,2,3.3c1,1,4.4,1.4,6.1,0
				c0.5-0.3,1.9-1.9,2.3-3.4c0.3-0.8,0.2-2.6-0.1-3.9c-0.2-0.5-0.4-1.5-1.1-2.3c-0.5-0.5-1.1-1.3-1.9-1.7c-0.6-0.3-1.5-0.8-2.4-1
				c-0.4-0.1-1.5-0.1-2.8-0.1c-0.8,0-1.6,0.1-2.5,0.4c-0.9,0.3-1.9,0.7-2.7,1.2c-0.6,0.5-1.7,1.1-2.2,1.9c-0.4,0.6-1.9,4.2-1.8,5.6
				c0,0.9-0.1,1.9,0.1,2.9c0.2,0.9,2.2,5.2,2.8,5.9c0.5,0.7,3.6,3.1,6,3.2c0.9,0,2,0,3.1-0.1c0.9-0.1,1.8,0,2.9-0.5
				c0.4-0.3,1.7-0.4,2.8-1.1c0.7-0.5,1.8-0.8,2.5-1.5c0.7-0.5,1.6-1.1,2.3-1.8c0.6-0.7,1.4-1.8,2-2.5c0.6-0.8,1-1.7,1.4-2.5
				c0.4-0.8,1.4-4.3,1.6-5.1c0.3-1.4,0.9-4.7,0.9-5.7c0-0.9-0.2-1.9-0.4-2.8c-0.2-0.8-0.3-1.8-0.6-2.5c-0.1-0.3-0.9-1.2-1.5-2.5
				c-0.3-0.7-1.3-1.6-1.9-2.4c-0.5-0.7-3.2-3.2-3.9-3.7c-0.7-0.5-1.7-0.7-2.5-1.1c-0.7-0.4-1.4-0.8-2.2-1.1
				c-0.2-0.1-7.7-1.4-8.7-1.3c-0.9,0.1-4.5,0.5-5.4,0.9c-0.8,0.3-2,0.3-2.8,0.8c-0.5,0.2-0.8,0.3-1.2,0.5c-0.3,0.2-0.7,0.3-1.2,0.7
				c-0.6,0.4-0.8,0.4-1,0.5c-0.2,0.1-0.5,0.3-0.9,0.6c-1.3,1.1-2.4,2.4-3.1,2.8c-0.2,0.2-0.3,0.4-0.5,0.6c-1.7,1.9-3.6,4.6-5.7,8.5
				C213.9,490.5,159.6,535,95,535c-76.2,0-138-61.8-138-138c0-0.2,0-0.3,0-0.5c-0.3,6.2-0.5,10.3-0.5,10.3c-0.4,3.2-1.2,6-2.2,8.6
				c-0.8,2-1.6,3.8-2.5,5.3c-0.5,1-0.9,1.8-1.1,2.1c-0.3,0.6-1.4,2-2.3,3c-0.3,0.3-0.5,0.6-0.7,0.8c-0.1,0.1-0.1,0.1-0.1,0.1
				c-0.6,0.7-1.7,1-2.5,1.6c-0.7,0.6-4,1.6-4.9,2c-0.8,0.3-4,1.3-4.9,1.4c-1,0.1-5-0.3-5.9-0.5c-1-0.2-1.7-0.8-2.6-1.2
				c-0.9-0.4-4.3-2.1-4.9-2.9c-0.6-0.7-1-1.5-1.5-2.4c-0.5-0.8-1.5-4.4-1.7-5.3c-0.1-0.9,0.1-4.8,0.3-5.7c0.3-0.9,1.3-4.4,2-5.3
				c1.3-1.5,3.7-3.1,4.5-3.5c0.8-0.4,2.1-0.3,3-0.4c1.5-0.5,1.7,0.2,2.5,0.4c2.1,0.4,3.9,2.7,4.3,3.6c0.4,1,0.8,2.6,0.8,3.6
				c0,0.9-0.1,2.3-0.6,3.1c-0.4,0.7-1,1.5-1.9,2.2c-0.8,0.6-2,0.6-2.7,0.8c-0.7,0.2,1.1-1.5,1.8-2.3c0.5-0.7,0.1-3.4-0.2-4.3
				c-0.2-0.9-2.2-2-3-2.3c-1.2-0.6-4.5,0.3-5.6,2.1c-0.3,0.5-1,2.4-0.9,4c0.1,0.8,0.7,2.4,1.5,3.5c0.4,0.4,0.9,1.2,1.8,1.7
				c0.6,0.3,1.4,0.8,2.4,0.9c0.7,0.1,1.6,0.2,2.5,0.1c0.4-0.1,1.4-0.4,2.6-0.9c0.7-0.3,1.4-0.7,2.2-1.3c0.7-0.5,1.5-1.3,2-2.1
				c0.4-0.7,1.1-1.6,1.3-2.5c0.1-0.7,0.3-4.4-0.3-5.7c-0.3-0.8-0.6-1.8-1.1-2.6c-0.5-0.8-3.8-3.9-4.6-4.4c-0.7-0.4-4.4-1.5-6.6-0.8
				c-0.8,0.3-1.8,0.7-2.8,1.2c-0.8,0.4-1.7,0.6-2.4,1.4c-0.3,0.4-1.5,0.9-2.2,2c-0.4,0.7-1.3,1.4-1.7,2.2c-0.4,0.7-1.1,1.5-1.4,2.4
				c-0.3,0.8-0.7,2.1-0.9,3c-0.2,0.9-0.3,1.9-0.4,2.8c-0.1,0.9,0.2,4.5,0.3,5.3c0.2,1.3,0.8,4.6,1.2,5.4c0.3,0.8,0.8,1.7,1.3,2.4
				c0.4,0.7,0.9,1.5,1.4,2.1c0.2,0.2,1.2,0.8,2.3,1.7c0.6,0.5,1.8,1,2.6,1.5c0.7,0.4,4,1.8,4.9,2c0.8,0.2,1.8,0,2.6,0.1
				c0.8,0.1,1.5,0.3,2.4,0.2c0.2,0,7.5-1.4,8.4-1.9c0.8-0.4,3.9-2,4.6-2.7c0.6-0.6,1.7-1,2.3-1.7c0.1-0.1,0.2-0.2,0.3-0.3
				c0.5-0.5,0.8-0.8,1.5-1.7c0.7-1,0.7-0.5,1.2-1.3c0.9-1.6,1.5-3.6,2.2-4.1c0.3-0.3,0.8-0.4,1.2-0.3c0.5,0.1,1,0.5,1.1,1.4
				c0.1,0.5,0.3,1.4,0.5,2.7c0.1,0.9,0.2,1.8,0.3,2.8c0.1,0.9,0.2,1.9,0.3,2.7c0,0.1,0,0.3,0.1,0.4c0.2,1.1,0.3,1,0.4,2.2
				c0,0.5,0,1.6-0.8,2.6c-0.4,0.5-1,1.3-2,1.8c-0.4,0.2-1.7,0.8-3,1.4c-1,0.5-2,0.9-2.3,1.1c-1.1,0.6-2,1-2.4,1.5
				c-0.4,0.5-2,1.3,0,2.1c0.9,0.3,1.8,0.9,2.8,1.4c0.9,0.4,1.8,0.9,2.6,1.5c0.6,0.5,2.5,2.7,3.3,3.6c0.1,0.2,0.2,0.3,0.3,0.4
				c0.3,0.4,0.3,0.8,0.3,1c0,0.3-0.2,0.5-0.5,0.7c-0.3,0.2-1.3,0.4-2.6,0.7c-0.7,0.2-1.5,0.5-2.4,0.7c-0.8,0.2-4.5,1-5.2,1
				c-1.3,0-2.1-0.5-2.7-0.7c-0.5-0.2-1.6-1-2.9-1.4c-1.1-0.3-2,0.1-2.8,0.8c-0.6,0.5-1.2,1-2,1.7c-0.5,0.5-1.3,0.9-2.1,1.3
				c-0.6,0.4-1.4,0.4-2.3,0.6c-1.1,0.3-2,0.7-3,0.9c-1,0.2-4.7,1.2-5.6,1.3c-1.7,0.2-2.4,0.4-2-1.2c0.1-0.6,0-1.6,0.4-2.6
				c0.3-0.7,0.9-1.5,1.5-2.3c0.4-0.7,1.1-1.2,1.8-1.8c0.5-0.5,3.3-2.8,3.8-3.4c0.7-0.9,0.9-2,0.2-2.5c-0.3-0.2-3.5-0.1-4.3,0.2
				c-0.8,0.3-4.8,2.4-5.8,2.8c-1,0.4-4.9,1.5-5.7,1.6c-0.7,0.1-1.7,0.2-2.6,0.2c-0.5,0-1,0-1.5-0.1c-0.7-2.4-1.5-4.9-2.1-7.3
				c-0.5-1.7-0.9-3.5-1.3-5.2l0,0c0,0-9.9-28.9-1.6-75.6c0.1-0.4,0.1-0.8,0.2-1.2c0.1-0.6,0.2-1.3,0.4-1.9c0.6-3,1.2-6,1.9-9
				c0-0.2,0.1-0.4,0.1-0.5l0,0c2.5-10.2,5.7-20.1,9.8-29.8c9.8-23.1,23.7-43.8,41.5-61.6c17.8-17.8,38.5-31.7,61.6-41.5
				c23.9-10.1,49.3-15.3,75.4-15.3c26.1,0,51.5,5.1,75.4,15.3c23.1,9.8,43.8,23.7,61.6,41.5c17.8,17.8,31.7,38.5,41.5,61.6
				c5.5,12.9,9.4,26.2,12,39.8c1.8,9.7,2.7,15.5,3.1,31.8c0,0,0,24-3.3,39.6C285.2,433.3,285.1,433.9,284.9,434.4z"/>
		</g>
		<g>
			<polygon class="st4" points="-52.6,381.3 -50.6,368.7 -54.9,368.1 -74.4,365.1 -73,358.2 -82.4,356.8 -84.2,356.5 -84.5,358.2 
				-88.3,383 -77,384.7 -76.3,377.7 -56.9,380.7 			"/>
			<path class="st4" d="M-68.4,352.4l6,2.2l9.9,3.7l3.4,1.3l0.8-2.2l3.5-9.4l-4-1.5l-6.5-2.4l0.1-0.2l7.7-0.8l4.8-0.5l5.1-13.8
				l-3.9,0.9l-9.4,2.2c-1.2,0.3-2,0.8-2.7,1.3l-0.3-0.1c0.2-5-1.2-7.7-6.2-9.5c-8.3-3.1-13.7,2-16.5,9.4l-5.4,14.4l3.7,1.4
				L-68.4,352.4z M-68.3,338c0.8-2,1.7-3.7,4.3-2.8c2.4,0.9,2,3,1.3,4.9l-0.3,0.8l-5.6-2.1L-68.3,338z"/>
			<polygon class="st4" points="-36,327.8 -29.6,316.9 -33,314.8 -59.7,299 -66.2,309.9 -39.5,325.7 			"/>
			<path class="st4" d="M-29.4,314.6l8.9-10.1l-2.4-3.3l-0.3-0.3l6.4-7.2l0.4,0.2l3.6,1.8l8.9-10.1l-2.8-1.1l-31.8-12.7l-9.3,10.6
				l16.7,29.5L-29.4,314.6z M-34.1,284.5c1.3,0.8,2.6,1.6,3.9,2.3l5.6,3l-3.4,3.8l-6.5-8.8L-34.1,284.5z"/>
			<polygon class="st4" points="-15.8,265.7 -3.4,281.7 -1.1,284.7 9,276.9 6.7,273.9 -5.7,257.9 0,253.9 -6.9,244.9 -28.1,261.3 
				-21.2,270.3 			"/>
			<polygon class="st4" points="16.7,271.5 37.5,260.7 36,257.8 32.3,250.7 22.9,255.6 11.9,234.5 0.6,240.4 15.1,268.4 			"/>
			<path class="st4" d="M44.1,254.7c3.9,1.6,8.4,1.8,13.1,0.6c4.6-1.2,8.5-3.6,11.1-6.8c3.3-4,4.5-9.4,3.1-15.4
				c-2.2-9.6-12.1-15.8-23.3-12.8c-10.3,2.8-17,11.8-14.2,22.4C35.5,248.7,39.3,252.8,44.1,254.7z M51,231.4c3.9-1,7.1,1.4,8.1,5
				c1,3.9-0.9,7.2-4.7,8.2c-3.7,1-7-1-8-4.9C45.4,236.1,47.1,232.4,51,231.4z"/>
			<path class="st4" d="M90.9,246.3l0.1-7.7c0-2.3-0.3-4.6-0.7-7l0.4,0l8.7,14.8l2.2,3.8l12.2,0.2l0-2.8l0.5-32.2l-12.2-0.2
				l-0.2,10.5c0,3,0.5,6,0.9,8.9l-0.4,0L91.5,215l-12.2-0.2L78.7,247l0,2.8l12.2,0.2L90.9,246.3z"/>
			<path class="st4" d="M150.4,257l2.9-2.3c0.7-0.6,1.3-1.2,1.8-1.8l0.3,0.1c-0.2,0.7-0.2,1.5-0.2,2.3l0.4,4l0.4,4.4l13.4,5.7
				l-0.7-3.5l-3.5-18.5l16.5-10.8l-13.2-5.6l-4.2,3.6c-0.8,0.7-1.5,1.4-2.2,2.2l-0.3-0.1c0.1-1,0.3-2,0.1-3.1l-0.4-5.6l-13.2-5.6
				l3.7,19.4l-15.8,10.5l-2.8,1.9l13.3,5.7L150.4,257z"/>
			<polygon class="st4" points="170.2,270.8 189.7,284.8 191.8,281.8 195.3,277 186.2,270.5 188.2,267.7 196.2,273.5 201.5,266.1 
				193.6,260.3 195.5,257.6 204.2,263.9 209.8,256.1 190.7,242.4 172.3,267.9 			"/>
			<polygon class="st4" points="192.9,287.8 209.1,304.7 211.8,302.1 217.2,296.9 209.8,289.2 227,272.7 218.1,263.5 195.6,285.1 
							"/>
			
				<rect x="224.4" y="296" transform="matrix(-0.8236 0.5671 -0.5671 -0.8236 591.0416 424.7196)" class="st4" width="10.2" height="16.6"/>
			<polygon class="st4" points="223,324.6 227.8,335.9 231.9,334.1 239,331.1 242.1,338.3 235,341.3 230.9,343.1 235.7,354.3 
				238.7,353.1 239.2,352.9 267.9,340.6 267.6,339.8 263.1,329.3 252.2,333.9 249.2,326.8 260,322.1 255.2,310.8 226.3,323.2 			"/>
			<path class="st4" d="M274.6,372.9l-0.2-1.3l-0.9-5.9l0,0l-0.5-3.5l-1.7-0.3l-23.1-4.2l-5.5-1l-1.9-0.3l-0.6-0.1l-2.4-0.4
				l-1.4-0.3l0.6,4l1.4,9.3l4.5,0.3l1.3,8.4l0.2,1.1l-1.1,0.5l-1.5,0.6l-1.5,0.7l0.5,2.9l1.3,8.5l0,0.1l0.3,1.8l3.6-2l6.9-3.7
				l0.7-0.4l7.1-3.9l0.3-0.2l14.1-7.6L274.6,372.9z M258.2,372.7l-2,0.8l-2.1,0.9l-1.8,0.7l-0.7-4.6l-0.1-0.5l3,0.2l7.9,0.5l0.1,0.5
				C261.1,371.7,259.6,372.1,258.2,372.7z"/>
			<path class="st4" d="M72.3,405.2c0.6,1.3,1.7,2.4,2.5,3.6c0.8,1.2,1.6,2.5,2.6,3.5c1,1,2.8,1.1,4,1.9c1.2,0.8,2.1,1.9,3.5,2.5
				c1.3,0.6,2.5,1.6,4,1.9c1.4,0.3,2.9-0.8,4.4-0.8c1.3,0,2.7,0.5,4,0.5c0.1,0,0.3,0,0.4,0c1.4-0.3,2.4-1.6,3.7-2.1
				c1.3-0.6,3.1-0.2,4.3-1c1.2-0.8,1.9-2.3,2.9-3.3c1-1,1.9-2.1,2.7-3.3c0.8-1.2,1.8-1.9,2.4-3.3c0.5-1.3,0.4-3.2,0.7-4.6
				c0.3-1.4,0.4-2.7,0.4-4.2c0-1.5,0-2.8-0.3-4.2c-0.3-1.4-0.5-2.8-1.1-4.1c-0.6-1.3-0.9-2.8-1.7-4c-0.7-1.1-2.2-1.6-3.2-2.4
				c-0.1-0.1-0.2-0.2-0.3-0.3c-1-1-1.9-2-3.1-2.8c-1.2-0.8-2.3-1.5-3.7-2.1c-1.3-0.5-2.7-0.7-4.1-1c-1.4-0.3-2.7-1-4.2-1
				c-1.5,0-3-0.5-4.4-0.3c-1.4,0.3-2.5,1.7-3.9,2.2c-1.3,0.6-3.1,0.4-4.3,1.2c-1.1,0.7-2.1,1.7-3,2.6c-0.1,0.1-0.2,0.2-0.3,0.3
				c-1,1-2.2,2-3,3.2c-0.8,1.2-0.9,2.8-1.5,4.2c-0.5,1.3-0.5,2.8-0.8,4.2c-0.3,1.4-0.9,2.7-0.9,4.2c0,1.5,0.5,2.9,0.8,4.2
				C72.1,402.3,71.7,403.9,72.3,405.2z"/>
			<path class="st4" d="M232.7,405.5c0.1-1.5,0.2-3,0.2-4.5l0.1-11.9l-2.4-18C218.4,307.3,162.4,259,95,259
				c-66.4,0-121.8,46.9-135,109.3c0,0-0.3,1.9-0.8,4.4c-0.4,2.3-0.8,5.1-1.2,7.4c-0.2,1.7-0.4,3.3-0.5,4.2c0,0,0,0.1,0,0.1
				c-0.2,4.5-0.4,8.6-0.6,12c0,0.2,0,0.3,0,0.5c0,76.2,61.8,138,138,138c64.6,0,118.9-44.5,133.9-104.5c0,0.1-0.1,0.1-0.1,0.2
				c2-8.2,3.3-16.4,3.8-24.6L232.7,405.5z M-21.6,336.7l1.3-2.1l2.6-4.7l2.9-4.5l1.5-2.5c1.9-2.8,4-5.6,6.2-8.3l2.2-2l3.3-4.3
				l3.5-3.2l0-0.1l-0.2-0.4l-0.2-0.4l0.6,0.5l0.2-0.1l3.4-4.2l4.1-3.5l4.5-2.9l4.1-3.5l4.6-2.8l4.2-3.5l5.1-1.9l4.4-3.2l5-1.9
				l4.8-2.6l5.2-1.5l5.2-1.3l5-2.1l5.4-0.5l5.2-1.6l5.4-0.1l5.3-1.2l5.4-0.2l5.4-0.1l5.4,0.7l5.4-0.1l5.4,0.4l5.3,0.9l5.3,0.9
				l5.3,0.9l5.1,1.7l4.9,2.2l5.1,1.6l5.2,1.5l4.9,2.2l4.8,2.5l4.3,3.3l4.9,2.3l4.3,3.2l4.2,3.4l4,3.6l4.5,3.1l3.6,4.1l0.2,0.2
				l0.1-0.1l-0.1,0.1l0,0.1l0,0l2.2,2.1c2.3,2.5,4.6,5,6.7,7.6l1.4,2.2l3.4,4.2l2.9,4.5l1.6,2.1c1.4,2.3,2.8,4.6,4.1,7l2.2,4.9
				l2,4.3c-2.3,2.9-5,6-9.3,11.3c-4.6,5.6-4.2,5.8-8.7,11.4c-4.6,5.6-4.7,5.5-9.3,11c-4.6,5.6-4.9,5.3-9.5,10.9
				c-4.6,5.6-4.2,5.9-8.8,11.4c-4.6,5.6-5.3,4.9-9.9,10.5c-4.6,5.6-4.7,5.5-9.2,11.1c-4.6,5.6-3.7,6.3-8.3,11.8
				c-4.6,5.6-5,5.2-9.6,10.8c-4.6,5.6-5,5.2-9.6,10.8c-4.4,5.4-19,24-20.6,26.2c0,0,0,0,0,0l-1.1,2.8l-0.3,0.7l-1.4,3.3
				c-0.1,0.1-0.2,0.2-0.2,0.2c-0.1,0.2-1.2,2.3-1.4,2.7c-0.2,0.4-1,1.8-1.6,1.8c-0.3,0-0.6-0.5-0.9-1l-0.8-2c0-0.1-0.1-0.2-0.1-0.3
				c0,0,0,0,0,0l-0.2-0.6l-2.6-4.7c-0.1-0.6-1.3-2.7-1.5-3c0,0-0.1-0.1-0.1-0.1c0,0,0,0,0,0l-0.3-0.5l0-0.1
				c-0.6-0.8-1.2-1.7-1.9-2.6c-2.5-3.1-5.6-6.8-8.9-10.9c-2.7-3.4-5.6-7.2-8.8-11c-2.8-3.5-6.5-6.6-9.5-10.4
				c-2.9-3.6-5.9-7.2-9-10.9c-2.9-3.6-5.6-7.5-8.6-11.2c-3-3.6-6.4-6.9-9.4-10.5c-3-3.7-5.6-7.7-8.5-11.3c-3-3.7-5.5-7.9-8.3-11.4
				c-3.1-3.8-6-7.5-8.8-11c-3.2-3.9-6.9-6.9-9.7-10.3c-3.4-4.1-6.5-7.7-9.1-10.8c-2.7-3.3-5.1-7.7-11.5-13.8
				C-24,341.4-22.9,339-21.6,336.7z M223.5,406.9l-0.8,5.3l-0.8,5.3l-0.5,5.4l-1.4,3.7c-0.3,1.3-0.6,2.6-1,3.9l-0.5,2.8l-0.4,1
				l-0.9,2.3c-0.3,1-0.6,1.9-1,2.9l-0.3,1.1l-0.8,2.8l-1.2,2.3l-0.4,0.7c-0.2,0.5-0.5,1-0.7,1.5c0,0.1-0.1,0.3-0.2,0.4
				c-0.5,1.4-1.1,2.9-1.8,4.2c-0.6,1.3-1.3,2.6-2,3.9c-0.4,0.8-0.8,1.5-1.2,2.3c-1.2,2.2-2.5,4.4-3.8,6.5c-1.1,1.7-2.3,3.4-3.6,5
				c-0.5,0.7-1,1.4-1.5,2.1l-2.3,3.6l-3.2,4.3l-3.7,3.9l-2.2,2.1c-0.5,0.6-1.1,1.2-1.7,1.8c-0.6,0.6-1.2,1.1-1.8,1.7
				c-0.4,0.4-0.9,0.8-1.3,1.2l-0.1,0.1l-0.6,0.6l-3.9,3.7l-2.5,1.6l-0.2,0.1c-0.1,0.1-0.2,0.2-0.3,0.3c-0.1,0.1-0.2,0.2-0.3,0.2
				c-0.8,0.6-1.5,1.2-2.3,1.8c-2.5,1.9-5.2,3.7-7.8,5.5c-0.1,0.1-0.3,0.2-0.4,0.3c-0.6,0.4-1.3,0.8-1.9,1.2l-1.9,1.3l-4.6,2.8
				l-4.4,1.9c-0.3,0.1-0.6,0.3-0.9,0.4l-4.2,2.6l-2.7,0.6c-0.6,0.2-1.1,0.5-1.7,0.7c-0.4,0.2-0.8,0.3-1.2,0.5
				c-0.3,0.1-0.5,0.3-0.8,0.4c-1,0.5-2,1-3.1,1.4c-0.1,0-0.1,0-0.2,0.1l-0.4,0.2l-0.8,0.2c-2.9,1-5.8,1.8-8.7,2.6l-0.8,0.3l-1.5,0.2
				c-0.5,0.1-1.1,0.3-1.6,0.4c-0.2,0.1-0.4,0.1-0.7,0.1c-1.6,0.3-3.3,0.6-5,0.8l-1.9,0.4l-0.9,0.1c-0.6,0.1-1.3,0.2-2,0.3
				c-0.3,0-0.7,0.1-1,0.1c-1.1,0.1-2.1,0.3-3.2,0.4l-0.1,0l-3.5,0.8l-2.7-0.3c-1,0.1-2,0.1-3,0.1c-0.6,0-1.2,0.1-1.8,0.1
				c-0.8,0-1.6,0.1-2.5,0.1l-0.8,0.1l-0.1,0l-0.6-0.1c-1.1,0-2.1-0.1-3.2-0.2c-0.3,0-0.7,0-1,0c-0.3,0-0.6,0-0.9,0
				c-6.1-0.3-12-0.9-17.8-2l-3.1-0.1l-5.2-1.6l-5.3-0.9l-2-1.1c-0.1,0-0.2-0.1-0.3-0.1c-0.1,0-0.1,0-0.2-0.1
				c-1.1-0.3-2.1-0.6-3.2-0.9c-1.3-0.4-2.5-1-3.7-1.5c-0.8-0.4-1.6-0.7-2.5-1.1c0,0,0,0,0,0l-3.2-0.8l-4.7-2.6l-4.8-2.5l-4.7-2.7
				l-4.6-2.8l-4.5-2.9l-3.5-3.1c-0.6-0.4-1.1-0.9-1.6-1.3c-0.1-0.1-0.1-0.1-0.2-0.2c-0.5-0.4-1-0.7-1.4-1.1l-1.5-1.2l-1.3-1.3
				c-3.1-2.7-6.1-5.6-9-8.6l-1.3-1.2l-0.8-1c-0.9-1-1.8-2-2.6-3c-0.7-0.8-1.4-1.7-2.1-2.6c-0.1-0.2-0.3-0.3-0.4-0.4
				c-0.2-0.3-0.4-0.6-0.6-0.8c-0.3-0.3-0.5-0.7-0.8-1c-1.4-1.9-2.8-3.7-4.2-5.7l-2-2.2l-2.5-4.8l-0.1-0.3
				c-3.7-6.3-6.9-12.9-9.5-19.8c0,0,0-0.1-0.1-0.1c-1-2.7-2-5.5-2.8-8.3c-0.1-0.4-0.3-0.8-0.4-1.3c-0.2-0.5-0.3-1.1-0.5-1.6
				c-0.2-0.6-0.4-1.2-0.6-1.8l-0.6-1.5l-0.1-0.7l0-0.1c-0.2-0.7-0.4-1.4-0.5-2.1c0,0,0-0.1,0-0.1c-0.3-1.4-0.5-2.9-0.7-4.3
				c-0.1-0.5-0.2-1.1-0.3-1.7c-0.1-0.7-0.2-1.4-0.4-2.1c-0.8-5-1.4-10.1-1.6-15.3c-0.1-1.9-0.1-3.8-0.1-5.7c0-0.1,0-0.1,0-0.2
				c0-0.1,0-0.1,0-0.2l0,0l0.1,0.1l0,0c0,0,0,0,0-0.1l0.2-0.1l0.4-0.3l2.5,2.8l3.9,3l2,1.2l4.6,2.9l1.9,2.4l4,3.1l2.6,1.2l4.3,3.2
				l4.3,3.3l4.2,3.5l4.1,3.6l0.8,0.7l4.3,3.3l3.9,2l3.9,3.8l0.5,0.5l6.6,5l1.7,0.9l2.2,2l3.2,2.4l3.5,1.9l3.1,3.1l3.2,2.4l2,1.4
				l3,2.4l1.9,1.5l3.8,2.5l4.4,3.2l4.2,3.5l4.2,3.4l0.1,0l19.9,15.1l1.7,0.9l1.5,1.3l0,0.1l1.1,0.9l1.5,1.3l1.6,1.1l0.5,0.3
				c0,0,1.8,1.5,2.2,1.5c0,0,0.1-0.1,0.2-0.1l0,0l3.9-3.4l2.8-1.4l8.1-6.1l2.1-2.3l3.6-2l13-9.8l0.9-0.8l1.1-0.7l5.2-3.9l2.1-2.2
				l3.8-2.2l6.6-5l2.8-2.4l1.1-0.6l5.7-4.3l1.6-2l3.4-1.8l11.6-8.7l2.2-2.5l4.5-3l4.4-3.2l3.2-2l9.4-7l0.5-0.5l0.4-0.2l6.3-4.8
				l1.6-1.9l4.3-3.2l4.3-3.2l2.1-0.9l4.9-3.7l1-1l0.7-0.3l0.2-0.2l0.3-0.2l0.3-0.2c0,2.8-0.1,5.5-0.3,8.2L223.5,406.9z"/>
			<polygon class="st4" points="275.4,378.8 266,383.7 275.9,387.1 			"/>
			<path class="st4" d="M71.3,226.1v-10L60,217.9C65.2,219.5,68.3,222.4,71.3,226.1z"/>
		</g>
	</g>
	<g>
		<path class="st4" d="M-45.6,472.9c0-0.8,0-1.7-0.4-2.5c-2.3-4.7-9.6-1.2-13,0.5c-3.6,1.8-10.2,5.3-7.9,9.9
			c0.4,0.7,0.9,1.3,1.5,1.8l-3.2,1.5c-1-0.6-1.6-1.3-2.1-2.3c-3.4-6.9,4-11.6,9.6-14.4c5.4-2.7,14.6-6.4,18,0.5
			c0.6,1.1,0.8,2,0.6,3.3L-45.6,472.9z"/>
		<path class="st4" d="M-37.9,477.8l-22.7,20.6l-1.9-3.3l4.5-3.9l-2.9-4.8l-5.6,2.1l-1.9-3.2l29-10.1L-37.9,477.8z M-52.3,486.3
			l8.7-6.8l0-0.1l-14.3,5.9l2.3,3.9L-52.3,486.3z"/>
		<path class="st4" d="M-32.6,486l-15.1,16.1l0,0.1l1.1-0.6l6.5-3.4l12.1-5.9l2,2.7l-22.6,20l-2.2-3l8.6-7.2l4.4-3.5l3.1-2.4l0-0.1
			l-3.8,2l-15,7.4l-1.5-2.1l14.5-15.3l0-0.1L-58,502.3l-2.1-2.9l25.6-16L-32.6,486z"/>
		<path class="st4" d="M-46.5,517.2l22.4-20.1l3,3.4c2.2,2.4,4.7,5.7-1.1,10.9c-4.5,4.1-8.2,4.3-11.9-0.2L-44,520L-46.5,517.2z
			 M-24.1,502.1l-7.4,6.7c2,2.6,4,2,6.5-0.3c2-1.8,3.2-3.9,1.3-6L-24.1,502.1z"/>
		<path class="st4" d="M-7.8,513.8l-2.4,2.5l-4.6-4.4l-6.5,6.9l4.1,3.9l-2.4,2.5l-4.1-3.9l-7,7.4l4.6,4.4l-2.4,2.5l-7.3-6.9
			l20.7-21.8L-7.8,513.8z"/>
		<path class="st4" d="M-5.6,534.9c-3.4,4.2-9.7,12-15.4,7.5s0.5-12.4,3.9-16.7c3.4-4.2,9.7-12,15.4-7.5
			C4,522.8-2.2,530.7-5.6,534.9z M-14,528.2c-4,5-7,9.4-4.7,11.2c2.3,1.8,5.9-2,9.9-7s7-9.4,4.7-11.2C-6.4,519.4-10,523.2-14,528.2z
			"/>
		<path class="st4" d="M2.4,532.9l-5.1,8.8l-6,9.3l-3.1-2.1l16.5-25.2l3,2l-7,22.7l0.1,0l5.8-10.6l5.9-9l3.1,2.1l-16.5,25.2
			l-2.9-1.9l7.2-23l-0.1,0L2.4,532.9z"/>
		<path class="st4" d="M22.6,534.7L13.7,564l-3.3-1.8l1.9-5.7l-5-2.7l-3.7,4.7l-3.2-1.7L20,533.3L22.6,534.7z M14.6,549.4l3.9-10.3
			l-0.1,0l-9.2,12.4l4,2.1L14.6,549.4z"/>
		<path class="st4" d="M36.5,541.2l-1.4,3.2l-3.9-1.8l-11,24.2l-3.4-1.5l11-24.2l-4-1.8l1.4-3.2L36.5,541.2z"/>
		<path class="st4" d="M44.7,560.2c-1.8,5.1-5.3,14.5-12.1,12.1c-6.9-2.4-3.6-11.9-1.7-17c1.8-5.1,5.3-14.5,12.1-12.1
			C49.8,545.6,46.5,555.1,44.7,560.2z M34.6,556.6c-2.1,6-3.5,11.1-0.7,12.1c2.8,1,5-3.9,7.1-9.9c2.1-6,3.5-11.1,0.7-12.1
			C38.9,545.7,36.7,550.6,34.6,556.6z"/>
		<path class="st4" d="M58.6,557.4l-1.5,10l-2.2,10.8l-3.7-0.7l6-29.5l3.5,0.7l1.9,23.7l0.1-0.1l1.5-12l2.1-10.5l3.7,0.7l-6,29.5
			l-3.4-0.7l-1.8-24l-0.1,0.1L58.6,557.4z"/>
		<path class="st4" d="M78.8,551.7l2.7,30.6l-3.8-0.4l-0.4-5.9l-5.6-0.6L70,581l-3.7-0.4l9.5-29.2L78.8,551.7z M76.9,568.3l-0.2-11
			l-0.1,0l-3.9,14.9l4.5,0.5L76.9,568.3z"/>
		<path class="st4" d="M94.7,556.7c-0.7-0.4-1.5-0.8-2.4-0.9c-5.2-0.2-5.6,7.9-5.8,11.7c-0.2,4-0.2,11.5,5,11.7
			c0.8,0,1.5-0.1,2.3-0.5l-0.1,3.5c-1,0.6-1.9,0.8-3,0.7c-7.6-0.3-8.3-9-8-15.3c0.2-6,1.4-15.9,9-15.6c1.3,0.1,2.2,0.3,3.2,1
			L94.7,556.7z"/>
		<path class="st4" d="M101.1,582.5l-3.7,0.1l-0.7-30.1l3.7-0.1L101.1,582.5z"/>
		<path class="st4" d="M117.7,566.2c0.5,5.4,1.3,15.4-5.9,16c-7.2,0.6-8.2-9.3-8.7-14.7c-0.5-5.4-1.3-15.4,5.9-16
			C116.3,550.8,117.3,560.8,117.7,566.2z M107.1,567.2c0.6,6.4,1.5,11.6,4.4,11.3c3-0.3,2.9-5.6,2.3-11.9
			c-0.6-6.4-1.5-11.6-4.4-11.3C106.4,555.5,106.5,560.8,107.1,567.2z"/>
		<path class="st4" d="M122.1,559.2l2.4,9.8l2,10.9l-3.7,0.7l-5.5-29.6l3.5-0.7l10.7,21.3l0.1-0.1l-3.1-11.7l-2-10.5l3.7-0.7
			l5.5,29.6l-3.4,0.6l-10.8-21.6l-0.1,0.1L122.1,559.2z"/>
		<path class="st4" d="M138.7,546.3l14,27.3l-3.6,1l-2.6-5.4l-5.4,1.5l0.6,5.9l-3.5,1l-2.2-30.6L138.7,546.3z M143.1,562.5
			l-4.3-10.1l-0.1,0l2,15.3l4.3-1.2L143.1,562.5z"/>
		<path class="st4" d="M147.8,543.3l9.1,25l5.9-2.1l1.2,3.3l-9.5,3.4l-10.2-28.3L147.8,543.3z"/>
		<path class="st4" d="M218.9,502.5c3.3,3.1,5.9,9.4,7.5,13.5l2,5.1l4.8-5.2l2.6,2.4l-8.4,9.2l-0.7-1.5l-6-14
			c-1.1-2.4-2.4-4.9-4.4-6.8c-1.2-1.1-3-2-4.3-0.6c-1.7,1.9,1.8,4.7,2.7,5.5l0.6,0.5l-2.6,2.8l-0.8-0.7c-3.5-3.2-6.3-6.6-2.6-10.6
			C212.3,498.7,215.4,499.3,218.9,502.5z"/>
		<path class="st4" d="M234.6,495.2c3.8,2.9,12.4,9.1,8.4,14.4c-4.1,5.4-12.4-1.4-16.1-4.2c-3.8-2.9-12.4-9.1-8.4-14.4
			C222.5,485.6,230.8,492.4,234.6,495.2z M221.3,493.2c-1.6,2.1,2.7,5.6,7.7,9.3c5,3.8,9.5,7,11.1,5c1.6-2.1-2.7-5.6-7.7-9.3
			C227.4,494.3,222.9,491.1,221.3,493.2z"/>
		<path class="st4" d="M227.3,478.8l25.4,16.2l-2,3.1l-22.4-14.3l-1.5,2.3l-2.9-1.9L227.3,478.8z"/>
		<path class="st4" d="M235.3,464.4l3.1,1.6l-2.9,5.4l6.3,4.3c2.2-4.6,6.5-4.9,10.9-2.6c4.9,2.6,8.8,6.8,5.9,12.1
			c-0.8,1.5-1.8,2.3-3.1,3.3l-2.7-2.5c1.1-0.7,2-1.2,2.6-2.4c1.5-2.9-1.6-5.6-3.9-6.9c-3.1-1.6-5.9-1.5-7.5,1.6
			c-0.3,0.7-0.6,1.4-0.8,2.2l-12.1-8.3L235.3,464.4z"/>
	</g>
	<path class="st4" d="M213.2,535.2c-0.3-0.5-1.5-2.7-1.8-3c-0.6-0.6-1.2-0.8-1.5-1.1c-0.3-0.2-1.2-0.4-1.9-0.8
		c-0.6-0.4-0.8-1.1-0.8-1.8c0-0.5,0-1.1,0-1.7c0-0.5-0.1-1-0.3-1.6c-0.1-0.5-0.4-0.9-0.7-1.4c-0.3-0.7-0.5-1.3-0.8-1.9
		c-0.4-0.6-1.4-2.8-1.8-3.4c-0.6-0.9-0.8-1.4-1.5-0.5c-0.2,0.3-0.8,0.7-1.1,1.3c-0.2,0.5-0.4,1.1-0.5,1.7c-0.1,0.5-0.1,1.1-0.1,1.7
		c0,0.5,0,2.9-0.1,3.4c-0.1,0.7-0.6,1.4-1.1,1.2c-0.2-0.1-1.5-1.7-1.7-2.2c-0.2-0.6-0.9-3.4-1.1-4.1c-0.3-0.7-1.4-3.1-1.6-3.5
		c-0.3-0.4-0.6-0.9-1-1.4c-0.4-0.4-0.8-0.9-1.4-0.9c-0.4,0-1.1,0.1-1.7,0.4c-0.5,0.3-1,0.7-1.7,1c-0.5,0.3-5.9,3.8-6.4,4.1
		c-0.5,0.4-1,0.8-1.5,1.1c-0.5,0.4-1,0.7-1.5,1.1c-0.4,0.4-0.9,0.7-1.4,1.1c-0.4,0.4-0.9,0.8-1.3,1.2c-0.4,0.4-0.7,0.9-1.2,1.4
		c-0.4,0.4-0.9,0.8-1.3,1.3c-0.3,0.4-1.6,2.5-1.9,3c-0.3,0.5-1.9,4.3-2,4.9c-0.2,0.5-0.3,1.1-0.4,1.7c-0.1,0.6,0,1.2-0.2,1.8
		c-0.1,0.5-0.4,2.3-0.4,3.4c0,0.5,1.3,8.1,1.5,8.6c0.4,1.1,0.3,1.4,1.7,2.1c0.3,0.1,0.9,0.3,1.7,0.7c0.5,0.2,2.9,1,3.5,1.2
		c0.5,0.2,2.9,1,3.5,1.1c0.6,0.1,4.9,0.3,5.5,0.2c0.6,0,1.2-0.1,1.8-0.2c0.6-0.1,1.2-0.1,1.7-0.2c0.5-0.2,1.1-0.6,1.6-1
		c0.5-0.3,1.1-0.6,1.5-1.1c1.4-1.6,2.4-4.3,2.6-5c0.2-0.6,0.6-2.6,0.6-3.2c0.1-0.6-0.2-1.3-0.3-1.9c0-0.6-0.9-2.7-1.1-3.3
		c-0.2-0.5-1.1-2.5-1.4-3c-0.4-0.6-2.3-2.4-2.8-2.8c-0.5-0.4-1.2-0.5-1.7-0.8c-0.6-0.3-2.9-1.2-3.6-1.2c-0.6,0-1.2,0.1-1.8,0.3
		c-0.6,0.1-2.9,1.1-3.4,1.4c-0.5,0.3-2.4,2.1-2.7,2.6c-0.3,0.5-1.7,2.6-1.8,3.3c-0.2,1.3,0,3.2,0.2,3.8c0.2,0.5,0.8,1.2,1.1,1.7
		c0.4,0.9,0.8,0.7,1.3,1.1c1.1,0.9,3,0.8,3.7,0.6c0.7-0.2,1.6-0.7,2.1-1.1c0.5-0.4,1.1-1,1.3-1.6c0.2-0.5,0.3-1.2,0.3-1.9
		c-0.1-0.6-0.6-1.3-0.8-1.7c-0.2-0.4-0.2,1.2-0.4,1.9c-0.1,0.6-1.6,1.5-2.2,1.8c-0.5,0.3-1.9-0.2-2.5-0.5c-0.8-0.4-1.8-2.4-1.3-3.7
		c0.1-0.4,0.8-1.6,1.6-2.2c0.4-0.3,1.5-0.7,2.4-0.8c0.4,0,1-0.1,1.6,0.2c0.4,0.2,1,0.4,1.4,0.8c0.3,0.3,0.8,0.8,1.1,1.2
		c0.1,0.2,0.4,0.9,0.6,1.7c0.1,0.5,0.3,1,0.3,1.6c0,0.6,0,1.3-0.2,1.9c-0.2,0.5-0.3,1.3-0.7,1.7c-0.3,0.4-2.1,2-3,2.3
		c-0.5,0.2-1.1,0.5-1.8,0.6c-0.6,0.1-3.6-0.2-4.2-0.4c-0.5-0.2-2.7-1.5-3.2-3c-0.2-0.6-0.5-1.2-0.6-1.9c-0.1-0.6-0.4-1.1-0.3-1.8
		c0.1-0.3-0.2-1.1,0.1-2c0.1-0.5,0.1-1.2,0.4-1.9c0.2-0.5,0.3-1.2,0.6-1.8c0.3-0.5,0.8-1.3,1.1-1.8c0.3-0.5,0.8-1,1.2-1.4
		c0.4-0.4,2.3-1.8,2.8-2.1c0.8-0.5,2.6-1.6,3.3-1.8c0.5-0.2,1.2-0.3,1.8-0.4c0.5-0.1,1.1-0.2,1.7-0.2c0.2,0,0.9,0.2,1.8,0.4
		c0.5,0.1,1.3,0.4,1.9,0.6c0.5,0.1,2.6,1.2,3.1,1.6c0.4,0.3,0.8,0.9,1.2,1.3c0.4,0.4,0.8,0.7,1.1,1.1c0.1,0.1,2.5,4.4,2.7,5
		c0.2,0.6,0.7,2.8,0.6,3.5c0,0.6,0.2,1.3,0.1,1.9c0,0.6,0,0.8-0.2,1.7c-0.2,0.8,0,0.6-0.1,1.2c-0.4,1.2-1.1,2.3-1.1,2.9
		c0,0.6,0.7,1.3,1.6,0.7c0.3-0.2,0.8-0.5,1.6-1c0.5-0.3,1-0.7,1.5-1.1c0.5-0.4,1-0.7,1.5-1c0.8-0.6,0.8-0.4,1.5-0.9
		c0.3-0.2,0.8-0.7,1-1.5c0.1-0.4,0.2-1.1,0-1.8c-0.1-0.6-0.9-3.2-1-3.7c-0.2-0.8-0.4-1.4-0.3-1.8c0.1-0.4-0.2-1.6,1-0.9
		c0.6,0.3,1.2,0.5,1.9,0.8c0.6,0.3,1.2,0.5,1.9,0.7c0.6,0.1,3.1,0.1,3.5,0c0.7-0.1,0.9-0.4,0.8-0.9c-0.1-0.2-0.4-0.8-0.8-1.6
		C213.7,536.3,213.5,535.7,213.2,535.2z"/>
</g>
</svg>
